dplyr Advanced Features
…
---

count: false

.panel1-relocate-auto[

```r
*flights
```
]
 
.panel2-relocate-auto[

```
# A tibble: 336,776 x 19
    year month   day dep_time sched_dep_time dep_delay arr_time sched_arr_time
   <int> <int> <int>    <int>          <int>     <dbl>    <int>          <int>
 1  2013     1     1      517            515         2      830            819
 2  2013     1     1      533            529         4      850            830
 3  2013     1     1      542            540         2      923            850
 4  2013     1     1      544            545        -1     1004           1022
 5  2013     1     1      554            600        -6      812            837
 6  2013     1     1      554            558        -4      740            728
 7  2013     1     1      555            600        -5      913            854
 8  2013     1     1      557            600        -3      709            723
 9  2013     1     1      557            600        -3      838            846
10  2013     1     1      558            600        -2      753            745
# … with 336,766 more rows, and 11 more variables: arr_delay <dbl>,
#   carrier <chr>, flight <int>, tailnum <chr>, origin <chr>, dest <chr>,
#   air_time <dbl>, distance <dbl>, hour <dbl>, minute <dbl>, time_hour <dttm>
```
…
---
count: false

.panel1-relocate-auto[

```r
flights %>%
*   relocate(carrier)
```
]
 
.panel2-relocate-auto[

```
# A tibble: 336,776 x 19
   carrier  year month   day dep_time sched_dep_time dep_delay arr_time
   <chr>   <int> <int> <int>    <int>          <int>     <dbl>    <int>
 1 UA       2013     1     1      517            515         2      830
 2 UA       2013     1     1      533            529         4      850
 3 AA       2013     1     1      542            540         2      923
 4 B6       2013     1     1      544            545        -1     1004
 5 DL       2013     1     1      554            600        -6      812
 6 UA       2013     1     1      554            558        -4      740
 7 B6       2013     1     1      555            600        -5      913
 8 EV       2013     1     1      557            600        -3      709
 9 B6       2013     1     1      557            600        -3      838
10 AA       2013     1     1      558            600        -2      753
# … with 336,766 more rows, and 11 more variables: sched_arr_time <int>,
#   arr_delay <dbl>, flight <int>, tailnum <chr>, origin <chr>, dest <chr>,
#   air_time <dbl>, distance <dbl>, hour <dbl>, minute <dbl>, time_hour <dttm>
```
…
.panel2-relocate-auto[

```
# A tibble: 2 x 19
  carrier  year month   day dep_time sched_dep_time dep_delay arr_time
  <chr>   <int> <int> <int>    <int>          <int>     <dbl>    <int>
1 UA       2013     1     1      517            515         2      830
2 UA       2013     1     1      533            529         4      850
# … with 11 more variables: sched_arr_time <int>, arr_delay <dbl>,
#   flight <int>, tailnum <chr>, origin <chr>, dest <chr>, air_time <dbl>,
#   distance <dbl>, hour <dbl>, minute <dbl>, time_hour <dttm>
```

```
# A tibble: 336,776 x 19
    year month   day dep_time sched_dep_time dep_delay arr_time sched_arr_time
   <int> <int> <int>    <int>          <int>     <dbl>    <int>          <int>
 1  2013     1     1      517            515         2      830            819
 2  2013     1     1      533            529         4      850            830
 3  2013     1     1      542            540         2      923            850
 4  2013     1     1      544            545        -1     1004           1022
 5  2013     1     1      554            600        -6      812            837
 6  2013     1     1      554            558        -4      740            728
 7  2013     1     1      555            600        -5      913            854
 8  2013     1     1      557            600        -3      709            723
 9  2013     1     1      557            600        -3      838            846
10  2013     1     1      558            600        -2      753            745
# … with 336,766 more rows, and 11 more variables: arr_delay <dbl>,
#   carrier <chr>, flight <int>, tailnum <chr>, origin <chr>, dest <chr>,
#   air_time <dbl>, distance <dbl>, hour <dbl>, minute <dbl>, time_hour <dttm>
```
…
.panel2-relocate-auto[

```
# A tibble: 2 x 19
  carrier  year month   day dep_time sched_dep_time dep_delay arr_time
  <chr>   <int> <int> <int>    <int>          <int>     <dbl>    <int>
1 UA       2013     1     1      517            515         2      830
2 UA       2013     1     1      533            529         4      850
# … with 11 more variables: sched_arr_time <int>, arr_delay <dbl>,
#   flight <int>, tailnum <chr>, origin <chr>, dest <chr>, air_time <dbl>,
#   distance <dbl>, hour <dbl>, minute <dbl>, time_hour <dttm>
```

```
# A tibble: 336,776 x 19
    year month   day carrier dep_time sched_dep_time dep_delay arr_time
   <int> <int> <int> <chr>      <int>          <int>     <dbl>    <int>
 1  2013     1     1 UA           517            515         2      830
 2  2013     1     1 UA           533            529         4      850
 3  2013     1     1 AA           542            540         2      923
 4  2013     1     1 B6           544            545        -1     1004
 5  2013     1     1 DL           554            600        -6      812
 6  2013     1     1 UA           554            558        -4      740
 7  2013     1     1 B6           555            600        -5      913
 8  2013     1     1 EV           557            600        -3      709
 9  2013     1     1 B6           557            600        -3      838
10  2013     1     1 AA           558            600        -2      753
# … with 336,766 more rows, and 11 more variables: sched_arr_time <int>,
#   arr_delay <dbl>, flight <int>, tailnum <chr>, origin <chr>, dest <chr>,
#   air_time <dbl>, distance <dbl>, hour <dbl>, minute <dbl>, time_hour <dttm>
```
…
```
# A tibble: 2 x 19
   year month   day carrier dep_time sched_dep_time dep_delay arr_time
  <int> <int> <int> <chr>      <int>          <int>     <dbl>    <int>
1  2013     1     1 UA           517            515         2      830
2  2013     1     1 UA           533            529         4      850
# … with 11 more variables: sched_arr_time <int>, arr_delay <dbl>,
#   flight <int>, tailnum <chr>, origin <chr>, dest <chr>, air_time <dbl>,
#   distance <dbl>, hour <dbl>, minute <dbl>, time_hour <dttm>
```

```
# A tibble: 336,776 x 19
    year month   day dep_time sched_dep_time dep_delay arr_time sched_arr_time
   <int> <int> <int>    <int>          <int>     <dbl>    <int>          <int>
 1  2013     1     1      517            515         2      830            819
 2  2013     1     1      533            529         4      850            830
 3  2013     1     1      542            540         2      923            850
 4  2013     1     1      544            545        -1     1004           1022
 5  2013     1     1      554            600        -6      812            837
 6  2013     1     1      554            558        -4      740            728
 7  2013     1     1      555            600        -5      913            854
 8  2013     1     1      557            600        -3      709            723
 9  2013     1     1      557            600        -3      838            846
10  2013     1     1      558            600        -2      753            745
# … with 336,766 more rows, and 11 more variables: arr_delay <dbl>,
#   carrier <chr>, flight <int>, tailnum <chr>, origin <chr>, dest <chr>,
#   air_time <dbl>, distance <dbl>, hour <dbl>, minute <dbl>, time_hour <dttm>
```
…
```
# A tibble: 2 x 19
   year month   day carrier dep_time sched_dep_time dep_delay arr_time
  <int> <int> <int> <chr>      <int>          <int>     <dbl>    <int>
1  2013     1     1 UA           517            515         2      830
2  2013     1     1 UA           533            529         4      850
# … with 11 more variables: sched_arr_time <int>, arr_delay <dbl>,
#   flight <int>, tailnum <chr>, origin <chr>, dest <chr>, air_time <dbl>,
#   distance <dbl>, hour <dbl>, minute <dbl>, time_hour <dttm>
```

```
# A tibble: 336,776 x 19
    year month   day dep_time sched_dep_time dep_delay arr_time sched_arr_time
   <int> <int> <int>    <int>          <int>     <dbl>    <int>          <int>
 1  2013     1     1      517            515         2      830            819
 2  2013     1     1      533            529         4      850            830
 3  2013     1     1      542            540         2      923            850
 4  2013     1     1      544            545        -1     1004           1022
 5  2013     1     1      554            600        -6      812            837
 6  2013     1     1      554            558        -4      740            728
 7  2013     1     1      555            600        -5      913            854
 8  2013     1     1      557            600        -3      709            723
 9  2013     1     1      557            600        -3      838            846
10  2013     1     1      558            600        -2      753            745
# … with 336,766 more rows, and 11 more variables: arr_delay <dbl>,
#   flight <int>, tailnum <chr>, origin <chr>, dest <chr>, carrier <chr>,
#   air_time <dbl>, distance <dbl>, hour <dbl>, minute <dbl>, time_hour <dttm>
```
…
```
# A tibble: 2 x 19
   year month   day dep_time sched_dep_time dep_delay arr_time sched_arr_time
  <int> <int> <int>    <int>          <int>     <dbl>    <int>          <int>
1  2013     1     1      517            515         2      830            819
2  2013     1     1      533            529         4      850            830
# … with 11 more variables: arr_delay <dbl>, flight <int>, tailnum <chr>,
#   origin <chr>, dest <chr>, carrier <chr>, air_time <dbl>, distance <dbl>,
#   hour <dbl>, minute <dbl>, time_hour <dttm>
```

```
# A tibble: 336,776 x 19
    year month   day dep_time sched_dep_time dep_delay arr_time sched_arr_time
   <int> <int> <int>    <int>          <int>     <dbl>    <int>          <int>
 1  2013     1     1      517            515         2      830            819
 2  2013     1     1      533            529         4      850            830
 3  2013     1     1      542            540         2      923            850
 4  2013     1     1      544            545        -1     1004           1022
 5  2013     1     1      554            600        -6      812            837
 6  2013     1     1      554            558        -4      740            728
 7  2013     1     1      555            600        -5      913            854
 8  2013     1     1      557            600        -3      709            723
 9  2013     1     1      557            600        -3      838            846
10  2013     1     1      558            600        -2      753            745
# … with 336,766 more rows, and 11 more variables: arr_delay <dbl>,
#   carrier <chr>, flight <int>, tailnum <chr>, origin <chr>, dest <chr>,
#   air_time <dbl>, distance <dbl>, hour <dbl>, minute <dbl>, time_hour <dttm>
```
…
```
# A tibble: 2 x 19
   year month   day dep_time sched_dep_time dep_delay arr_time sched_arr_time
  <int> <int> <int>    <int>          <int>     <dbl>    <int>          <int>
1  2013     1     1      517            515         2      830            819
2  2013     1     1      533            529         4      850            830
# … with 11 more variables: arr_delay <dbl>, flight <int>, tailnum <chr>,
#   origin <chr>, dest <chr>, carrier <chr>, air_time <dbl>, distance <dbl>,
#   hour <dbl>, minute <dbl>, time_hour <dttm>
```

```
# A tibble: 336,776 x 19
    year month   day dep_time sched_dep_time dep_delay arr_time sched_arr_time
   <int> <int> <int>    <int>          <int>     <dbl>    <int>          <int>
 1  2013     1     1      517            515         2      830            819
 2  2013     1     1      533            529         4      850            830
 3  2013     1     1      542            540         2      923            850
 4  2013     1     1      544            545        -1     1004           1022
 5  2013     1     1      554            600        -6      812            837
 6  2013     1     1      554            558        -4      740            728
 7  2013     1     1      555            600        -5      913            854
 8  2013     1     1      557            600        -3      709            723
 9  2013     1     1      557            600        -3      838            846
10  2013     1     1      558            600        -2      753            745
# … with 336,766 more rows, and 11 more variables: arr_delay <dbl>,
#   flight <int>, tailnum <chr>, origin <chr>, dest <chr>, air_time <dbl>,
#   distance <dbl>, hour <dbl>, minute <dbl>, time_hour <dttm>, carrier <chr>
```
…
---

count: false

.panel1-relocate2-auto[

```r
*flights
```
]
 
.panel2-relocate2-auto[

```
# A tibble: 336,776 x 19
    year month   day dep_time sched_dep_time dep_delay arr_time sched_arr_time
   <int> <int> <int>    <int>          <int>     <dbl>    <int>          <int>
 1  2013     1     1      517            515         2      830            819
 2  2013     1     1      533            529         4      850            830
 3  2013     1     1      542            540         2      923            850
 4  2013     1     1      544            545        -1     1004           1022
 5  2013     1     1      554            600        -6      812            837
 6  2013     1     1      554            558        -4      740            728
 7  2013     1     1      555            600        -5      913            854
 8  2013     1     1      557            600        -3      709            723
 9  2013     1     1      557            600        -3      838            846
10  2013     1     1      558            600        -2      753            745
# … with 336,766 more rows, and 11 more variables: arr_delay <dbl>,
#   carrier <chr>, flight <int>, tailnum <chr>, origin <chr>, dest <chr>,
#   air_time <dbl>, distance <dbl>, hour <dbl>, minute <dbl>, time_hour <dttm>
```
…
---
count: false

.panel1-relocate2-auto[

```r
flights %>%
*   relocate(is.numeric, .after =last_col())
```
]
 
.panel2-relocate2-auto[

```
# A tibble: 336,776 x 19
   carrier tailnum origin dest  time_hour            year month   day dep_time
   <chr>   <chr>   <chr>  <chr> <dttm>              <int> <int> <int>    <int>
 1 UA      N14228  EWR    IAH   2013-01-01 05:00:00  2013     1     1      517
 2 UA      N24211  LGA    IAH   2013-01-01 05:00:00  2013     1     1      533
 3 AA      N619AA  JFK    MIA   2013-01-01 05:00:00  2013     1     1      542
 4 B6      N804JB  JFK    BQN   2013-01-01 05:00:00  2013     1     1      544
 5 DL      N668DN  LGA    ATL   2013-01-01 06:00:00  2013     1     1      554
 6 UA      N39463  EWR    ORD   2013-01-01 05:00:00  2013     1     1      554
 7 B6      N516JB  EWR    FLL   2013-01-01 06:00:00  2013     1     1      555
 8 EV      N829AS  LGA    IAD   2013-01-01 06:00:00  2013     1     1      557
 9 B6      N593JB  JFK    MCO   2013-01-01 06:00:00  2013     1     1      557
10 AA      N3ALAA  LGA    ORD   2013-01-01 06:00:00  2013     1     1      558
# … with 336,766 more rows, and 10 more variables: sched_dep_time <int>,
#   dep_delay <dbl>, arr_time <int>, sched_arr_time <int>, arr_delay <dbl>,
#   flight <int>, air_time <dbl>, distance <dbl>, hour <dbl>, minute <dbl>
```
…
.panel2-relocate2-auto[

```
# A tibble: 2 x 19
  carrier tailnum origin dest  time_hour            year month   day dep_time
  <chr>   <chr>   <chr>  <chr> <dttm>              <int> <int> <int>    <int>
1 UA      N14228  EWR    IAH   2013-01-01 05:00:00  2013     1     1      517
2 UA      N24211  LGA    IAH   2013-01-01 05:00:00  2013     1     1      533
# … with 10 more variables: sched_dep_time <int>, dep_delay <dbl>,
#   arr_time <int>, sched_arr_time <int>, arr_delay <dbl>, flight <int>,
#   air_time <dbl>, distance <dbl>, hour <dbl>, minute <dbl>
```

```
# A tibble: 336,776 x 19
    year month   day dep_time sched_dep_time dep_delay arr_time sched_arr_time
   <int> <int> <int>    <int>          <int>     <dbl>    <int>          <int>
 1  2013     1     1      517            515         2      830            819
 2  2013     1     1      533            529         4      850            830
 3  2013     1     1      542            540         2      923            850
 4  2013     1     1      544            545        -1     1004           1022
 5  2013     1     1      554            600        -6      812            837
 6  2013     1     1      554            558        -4      740            728
 7  2013     1     1      555            600        -5      913            854
 8  2013     1     1      557            600        -3      709            723
 9  2013     1     1      557            600        -3      838            846
10  2013     1     1      558            600        -2      753            745
# … with 336,766 more rows, and 11 more variables: arr_delay <dbl>,
#   carrier <chr>, flight <int>, tailnum <chr>, origin <chr>, dest <chr>,
#   air_time <dbl>, distance <dbl>, hour <dbl>, minute <dbl>, time_hour <dttm>
```
…
.panel2-relocate2-auto[

```
# A tibble: 2 x 19
  carrier tailnum origin dest  time_hour            year month   day dep_time
  <chr>   <chr>   <chr>  <chr> <dttm>              <int> <int> <int>    <int>
1 UA      N14228  EWR    IAH   2013-01-01 05:00:00  2013     1     1      517
2 UA      N24211  LGA    IAH   2013-01-01 05:00:00  2013     1     1      533
# … with 10 more variables: sched_dep_time <int>, dep_delay <dbl>,
#   arr_time <int>, sched_arr_time <int>, arr_delay <dbl>, flight <int>,
#   air_time <dbl>, distance <dbl>, hour <dbl>, minute <dbl>
```

```
# A tibble: 336,776 x 19
    year month   day dep_time sched_dep_time dep_delay arr_time sched_arr_time
   <int> <int> <int>    <int>          <int>     <dbl>    <int>          <int>
 1  2013     1     1      517            515         2      830            819
 2  2013     1     1      533            529         4      850            830
 3  2013     1     1      542            540         2      923            850
 4  2013     1     1      544            545        -1     1004           1022
 5  2013     1     1      554            600        -6      812            837
 6  2013     1     1      554            558        -4      740            728
 7  2013     1     1      555            600        -5      913            854
 8  2013     1     1      557            600        -3      709            723
 9  2013     1     1      557            600        -3      838            846
10  2013     1     1      558            600        -2      753            745
# … with 336,766 more rows, and 11 more variables: arr_delay <dbl>,
#   flight <int>, air_time <dbl>, distance <dbl>, hour <dbl>, minute <dbl>,
#   carrier <chr>, tailnum <chr>, origin <chr>, dest <chr>, time_hour <dttm>
```
…
